^E:\dev\deltamushtoskincluster\src\deltaMushToSkinCluster.vcxproj
E:\dev\deltamushtoskincluster\src\Release\deltaMushToSkinCluster.lib
E:\dev\deltamushtoskincluster\src\Release\deltaMushToSkinCluster.lib
E:\dev\deltamushtoskincluster\src\Release\deltaMushToSkinCluster.exp
E:\dev\deltamushtoskincluster\src\Release\deltaMushToSkinCluster.exp
